Week4 | Rによる自主勉強会
…
tempdata <- tempdata %>% 
  mutate(date = ymd(date))
tempdata %>% print(n = 4)

## # A tibble: 744 x 9
##   date        time  elec  prec  temp daytime elec100 time12 ampm 
##   <date>     <dbl> <dbl> <dbl> <dbl>   <dbl>   <dbl>  <dbl> <chr>
## 1 2014-08-01     0  3193     0  27.9       0    31.9      0 a.m. 
## 2 2014-08-01     1  2960     0  27.9       0    29.6      1 a.m. 
## 3 2014-08-01     2  2807     0  27.1       0    28.1      2 a.m. 
## 4 2014-08-01     3  2748     0  26.8       0    27.5      3 a.m. 
## # ... with 740 more rows
## # i Use `print(n = ...)` to see more rows
…
